,customer_id,customer_name,contact_no,customer_address,customer_type,email,register_date
0,3,lokesh,8879970286,sion,I,lokesh@gmail.com,2018-08-19 19:31:55.934742
1,4,rajesh,8879970286,sion,S,rajesh@gmail.com,2018-08-25 12:20:25.919512
